Achsen umsortieren
…
]

--

.xtiny-font.pull-right[

```r
penguins %>% 
  # anpassen im original Datensatz, ohne Zählen
  mutate(species = fct_infreq(species))
```

```
# A tibble: 344 x 8
   species island    bill_length_mm bill_depth_mm flipper_length_mm body_mass_g sex     year
   <fct>   <fct>              <dbl>         <dbl>             <int>       <int> <fct>  <int>
 1 Adelie  Torgersen           39.1          18.7               181        3750 male    2007
 2 Adelie  Torgersen           39.5          17.4               186        3800 female  2007
 3 Adelie  Torgersen           40.3          18                 195        3250 female  2007
 4 Adelie  Torgersen           NA            NA                  NA          NA <NA>    2007
 5 Adelie  Torgersen           36.7          19.3               193        3450 female  2007
 6 Adelie  Torgersen           39.3          20.6               190        3650 male    2007
 7 Adelie  Torgersen           38.9          17.8               181        3625 female  2007
 8 Adelie  Torgersen           39.2          19.6               195        4675 male    2007
 9 Adelie  Torgersen           34.1          18.1               193        3475 <NA>    2007
10 Adelie  Torgersen           42            20.2               190        4250 <NA>    2007
# … with 334 more rows
```
…
---

## Das gapminder dataset: Lebenserwartung in der Welt

.tiny-font[

```r
library(gapminder)

gapminder
```

```
# A tibble: 1,704 x 6
   country     continent  year lifeExp      pop gdpPercap
   <fct>       <fct>     <int>   <dbl>    <int>     <dbl>
 1 Afghanistan Asia       1952    28.8  8425333      779.
 2 Afghanistan Asia       1957    30.3  9240934      821.
 3 Afghanistan Asia       1962    32.0 10267083      853.
 4 Afghanistan Asia       1967    34.0 11537966      836.
 5 Afghanistan Asia       1972    36.1 13079460      740.
 6 Afghanistan Asia       1977    38.4 14880372      786.
 7 Afghanistan Asia       1982    39.9 12881816      978.
 8 Afghanistan Asia       1987    40.8 13867957      852.
 9 Afghanistan Asia       1992    41.7 16317921      649.
10 Afghanistan Asia       1997    41.8 22227415      635.
# … with 1,694 more rows
```
…
```
Joining, by = "carrier"
```
]

--

.tiny-font[

```r
flight_data
```

```
# A tibble: 336,776 x 8
   name                     carrier flight  year month   day origin dest 
   <chr>                    <chr>    <int> <int> <int> <int> <chr>  <chr>
 1 United Air Lines Inc.    UA        1545  2013     1     1 EWR    IAH  
 2 United Air Lines Inc.    UA        1714  2013     1     1 LGA    IAH  
 3 American Airlines Inc.   AA        1141  2013     1     1 JFK    MIA  
 4 JetBlue Airways          B6         725  2013     1     1 JFK    BQN  
 5 Delta Air Lines Inc.     DL         461  2013     1     1 LGA    ATL  
 6 United Air Lines Inc.    UA        1696  2013     1     1 EWR    ORD  
 7 JetBlue Airways          B6         507  2013     1     1 EWR    FLL  
 8 ExpressJet Airlines Inc. EV        5708  2013     1     1 LGA    IAD  
 9 JetBlue Airways          B6          79  2013     1     1 JFK    MCO  
10 American Airlines Inc.   AA         301  2013     1     1 LGA    ORD  
# … with 336,766 more rows
```
…
