Unsicherheit visualisieren
…
]

---

## Erstellen einer Grafik mit Fehlerbalken in R

.tiny-font[

```r
lm_data <- gapminder 
lm_data
```

```
# A tibble: 1,704 x 6
   country     continent  year lifeExp      pop gdpPercap
   <fct>       <fct>     <int>   <dbl>    <int>     <dbl>
 1 Afghanistan Asia       1952    28.8  8425333      779.
 2 Afghanistan Asia       1957    30.3  9240934      821.
 3 Afghanistan Asia       1962    32.0 10267083      853.
 4 Afghanistan Asia       1967    34.0 11537966      836.
 5 Afghanistan Asia       1972    36.1 13079460      740.
 6 Afghanistan Asia       1977    38.4 14880372      786.
 7 Afghanistan Asia       1982    39.9 12881816      978.
 8 Afghanistan Asia       1987    40.8 13867957      852.
 9 Afghanistan Asia       1992    41.7 16317921      649.
10 Afghanistan Asia       1997    41.8 22227415      635.
# … with 1,694 more rows
```
…
---

## Erstellen einer Grafik mit Fehlerbalken in R

.tiny-font[

```r
lm_data <- gapminder %>%
  nest(data = -c(continent, year))

lm_data
```

```
# A tibble: 60 x 3
   continent  year data             
   <fct>     <int> <list>           
 1 Asia       1952 <tibble [33 × 4]>
 2 Asia       1957 <tibble [33 × 4]>
 3 Asia       1962 <tibble [33 × 4]>
 4 Asia       1967 <tibble [33 × 4]>
 5 Asia       1972 <tibble [33 × 4]>
 6 Asia       1977 <tibble [33 × 4]>
 7 Asia       1982 <tibble [33 × 4]>
 8 Asia       1987 <tibble [33 × 4]>
 9 Asia       1992 <tibble [33 × 4]>
10 Asia       1997 <tibble [33 × 4]>
# … with 50 more rows
```
…
---
## Erstellen einer Grafik mit Fehlerbalken in R

.tiny-font[

```r
lm_data <- gapminder %>%
  nest(data = -c(continent, year))

lm_data$data[[1]]
```

```
# A tibble: 33 x 4
   country          lifeExp       pop gdpPercap
   <fct>              <dbl>     <int>     <dbl>
 1 Afghanistan         28.8   8425333      779.
 2 Bahrain             50.9    120447     9867.
 3 Bangladesh          37.5  46886859      684.
 4 Cambodia            39.4   4693836      368.
 5 China               44   556263527      400.
 6 Hong Kong, China    61.0   2125900     3054.
 7 India               37.4 372000000      547.
 8 Indonesia           37.5  82052000      750.
 9 Iran                44.9  17272000     3035.
10 Iraq                45.3   5441766     4130.
# … with 23 more rows
```
…
.tiny-font[

```r
lm_data <- gapminder %>%
  nest(data = -c(continent, year)) %>%
  mutate(
    fit = map(data, ~lm(lifeExp ~ log(gdpPercap), data = .x))
  )

lm_data
```

```
# A tibble: 60 x 4
   continent  year data              fit   
   <fct>     <int> <list>            <list>
 1 Asia       1952 <tibble [33 × 4]> <lm>  
 2 Asia       1957 <tibble [33 × 4]> <lm>  
 3 Asia       1962 <tibble [33 × 4]> <lm>  
 4 Asia       1967 <tibble [33 × 4]> <lm>  
 5 Asia       1972 <tibble [33 × 4]> <lm>  
 6 Asia       1977 <tibble [33 × 4]> <lm>  
 7 Asia       1982 <tibble [33 × 4]> <lm>  
 8 Asia       1987 <tibble [33 × 4]> <lm>  
 9 Asia       1992 <tibble [33 × 4]> <lm>  
10 Asia       1997 <tibble [33 × 4]> <lm>  
# … with 50 more rows
```
…
.tiny-font[ 

```r
lm_data <- gapminder %>%
  nest(data = -c(continent, year)) %>%
  mutate(
    fit = map(data, ~lm(lifeExp ~ log(gdpPercap), data = .x)),
    tidy_out = map(fit, tidy)
  )

lm_data
```

```
# A tibble: 60 x 5
   continent  year data              fit    tidy_out        
   <fct>     <int> <list>            <list> <list>          
 1 Asia       1952 <tibble [33 × 4]> <lm>   <tibble [2 × 5]>
 2 Asia       1957 <tibble [33 × 4]> <lm>   <tibble [2 × 5]>
 3 Asia       1962 <tibble [33 × 4]> <lm>   <tibble [2 × 5]>
 4 Asia       1967 <tibble [33 × 4]> <lm>   <tibble [2 × 5]>
 5 Asia       1972 <tibble [33 × 4]> <lm>   <tibble [2 × 5]>
 6 Asia       1977 <tibble [33 × 4]> <lm>   <tibble [2 × 5]>
 7 Asia       1982 <tibble [33 × 4]> <lm>   <tibble [2 × 5]>
 8 Asia       1987 <tibble [33 × 4]> <lm>   <tibble [2 × 5]>
 9 Asia       1992 <tibble [33 × 4]> <lm>   <tibble [2 × 5]>
10 Asia       1997 <tibble [33 × 4]> <lm>   <tibble [2 × 5]>
# … with 50 more rows
```
…
```r
lm_data <- gapminder %>%
  nest(data = -c(continent, year)) %>%
  mutate(
    fit = map(data, ~lm(lifeExp ~ log(gdpPercap), data = .x)),
    tidy_out = map(fit, tidy)
  ) %>%
  unnest(cols = tidy_out)

lm_data
```

```
# A tibble: 120 x 9
   continent  year data              fit    term           estimate std.error statistic  p.value
   <fct>     <int> <list>            <list> <chr>             <dbl>     <dbl>     <dbl>    <dbl>
 1 Asia       1952 <tibble [33 × 4]> <lm>   (Intercept)       15.8       9.27      1.71 0.0978  
 2 Asia       1952 <tibble [33 × 4]> <lm>   log(gdpPercap)     4.16      1.25      3.33 0.00228 
 3 Asia       1957 <tibble [33 × 4]> <lm>   (Intercept)       18.1       9.70      1.86 0.0720  
 4 Asia       1957 <tibble [33 × 4]> <lm>   log(gdpPercap)     4.17      1.28      3.26 0.00271 
 5 Asia       1962 <tibble [33 × 4]> <lm>   (Intercept)       16.6       9.52      1.74 0.0911  
 6 Asia       1962 <tibble [33 × 4]> <lm>   log(gdpPercap)     4.59      1.24      3.72 0.000794
 7 Asia       1967 <tibble [33 × 4]> <lm>   (Intercept)       19.8       9.05      2.19 0.0364  
 8 Asia       1967 <tibble [33 × 4]> <lm>   log(gdpPercap)     4.50      1.15      3.90 0.000477
 9 Asia       1972 <tibble [33 × 4]> <lm>   (Intercept)       21.9       8.14      2.69 0.0113  
10 Asia       1972 <tibble [33 × 4]> <lm>   log(gdpPercap)     4.44      1.01      4.41 0.000116
# … with 110 more rows
```
…
```r
lm_data <- gapminder %>%
  nest(data = -c(continent, year)) %>%
  mutate(
    fit = map(data, ~lm(lifeExp ~ log(gdpPercap), data = .x)),
    tidy_out = map(fit, tidy)
  ) %>%
  unnest(cols = tidy_out) %>%
  select(-fit, -data)

lm_data
```

```
# A tibble: 120 x 7
   continent  year term           estimate std.error statistic  p.value
   <fct>     <int> <chr>             <dbl>     <dbl>     <dbl>    <dbl>
 1 Asia       1952 (Intercept)       15.8       9.27      1.71 0.0978  
 2 Asia       1952 log(gdpPercap)     4.16      1.25      3.33 0.00228 
 3 Asia       1957 (Intercept)       18.1       9.70      1.86 0.0720  
 4 Asia       1957 log(gdpPercap)     4.17      1.28      3.26 0.00271 
 5 Asia       1962 (Intercept)       16.6       9.52      1.74 0.0911  
 6 Asia       1962 log(gdpPercap)     4.59      1.24      3.72 0.000794
 7 Asia       1967 (Intercept)       19.8       9.05      2.19 0.0364  
 8 Asia       1967 log(gdpPercap)     4.50      1.15      3.90 0.000477
 9 Asia       1972 (Intercept)       21.9       8.14      2.69 0.0113  
10 Asia       1972 log(gdpPercap)     4.44      1.01      4.41 0.000116
# … with 110 more rows
```
…
lm_data
```

```
# A tibble: 48 x 7
   continent  year term           estimate std.error statistic       p.value
   <fct>     <int> <chr>             <dbl>     <dbl>     <dbl>         <dbl>
 1 Asia       1952 log(gdpPercap)     4.16     1.25       3.33 0.00228      
 2 Asia       1957 log(gdpPercap)     4.17     1.28       3.26 0.00271      
 3 Asia       1962 log(gdpPercap)     4.59     1.24       3.72 0.000794     
 4 Asia       1967 log(gdpPercap)     4.50     1.15       3.90 0.000477     
 5 Asia       1972 log(gdpPercap)     4.44     1.01       4.41 0.000116     
 6 Asia       1977 log(gdpPercap)     4.87     1.03       4.75 0.0000442    
 7 Asia       1982 log(gdpPercap)     4.78     0.852      5.61 0.00000377   
 8 Asia       1987 log(gdpPercap)     5.17     0.727      7.12 0.0000000531 
 9 Asia       1992 log(gdpPercap)     5.09     0.649      7.84 0.00000000760
10 Asia       1997 log(gdpPercap)     5.11     0.628      8.15 0.00000000335
# … with 38 more rows
```
…
